﻿{
  "order": {
    "order_type": "simple",
    "id": 1068,
    "post": {
      "ID": 1068,
      "post_author": "1",
      "post_date": "2016-12-10 09:08:30",
      "post_date_gmt": "2016-12-10 01:08:30",
      "post_content": "",
      "post_title": "Order – December 10, 2016 @ 09:08 AM",
      "post_excerpt": "",
      "post_status": "wc-processing",
      "comment_status": "closed",
      "ping_status": "closed",
      "post_password": "order_584b554697f9d",
      "post_name": "order-dec-10-2016-0107-am",
      "to_ping": "",
      "pinged": "",
      "post_modified": "2016-12-10 09:08:30",
      "post_modified_gmt": "2016-12-10 01:08:30",
      "post_content_filtered": "",
      "post_parent": 0,
      "guid": "http://www.vitamode.com.my/?post_type=shop_order&p=1072",
      "menu_order": 0,
      "post_type": "shop_order",
      "post_mime_type": "",
      "comment_count": "2",
      "filter": "raw"
    },
    "order_date": "2016-12-10 09:08:30",
    "modified_date": "2016-12-10 09:08:30",
    "customer_message": "",
    "customer_note": "",
    "post_status": "wc-processing",
    "prices_include_tax": false,
    "tax_display_cart": "excl",
    "display_totals_ex_tax": true,
    "display_cart_ex_tax": true
  },
  "product": {
    "details": {
      "130": {
        "name": "test3",
        "type": "line_item",
        "item_meta": {
          "_qty": [
            "1"
          ],
          "_tax_class": [
            ""
          ],
          "_product_id": [
            "994"
          ],
          "_variation_id": [
            "0"
          ],
          "_line_subtotal": [
            "0.51"
          ],
          "_line_total": [
            "0.51"
          ],
          "_line_subtotal_tax": [
            "0.0306"
          ],
          "_line_tax": [
            "0.0306"
          ],
          "_line_tax_data": [
            "a:2:{s:5:\"total\";a:1:{i:1;s:6:\"0.0306\";}s:8:\"subtotal\";a:1:{i:1;s:6:\"0.0306\";}}"
          ]
        },
        "item_meta_array": {
          "881": {
            "key": "_qty",
            "value": "1"
          },
          "882": {
            "key": "_tax_class",
            "value": ""
          },
          "883": {
            "key": "_product_id",
            "value": "994"
          },
          "884": {
            "key": "_variation_id",
            "value": "0"
          },
          "885": {
            "key": "_line_subtotal",
            "value": "0.51"
          },
          "886": {
            "key": "_line_total",
            "value": "0.51"
          },
          "887": {
            "key": "_line_subtotal_tax",
            "value": "0.0306"
          },
          "888": {
            "key": "_line_tax",
            "value": "0.0306"
          },
          "889": {
            "key": "_line_tax_data",
            "value": "a:2:{s:5:\"total\";a:1:{i:1;s:6:\"0.0306\";}s:8:\"subtotal\";a:1:{i:1;s:6:\"0.0306\";}}"
          }
        },
        "qty": "1",
        "tax_class": "",
        "product_id": "994",
        "variation_id": "0",
        "line_subtotal": "0.51",
        "line_total": "0.51",
        "line_subtotal_tax": "0.0306",
        "line_tax": "0.0306",
        "line_tax_data": "a:2:{s:5:\"total\";a:1:{i:1;s:6:\"0.0306\";}s:8:\"subtotal\";a:1:{i:1;s:6:\"0.0306\";}}"
      },
      "131": {
        "name": "test4",
        "type": "line_item",
        "item_meta": {
          "_qty": [
            "1"
          ],
          "_tax_class": [
            ""
          ],
          "_product_id": [
            "995"
          ],
          "_variation_id": [
            "0"
          ],
          "_line_subtotal": [
            "0.28"
          ],
          "_line_total": [
            "0.28"
          ],
          "_line_subtotal_tax": [
            "0.0168"
          ],
          "_line_tax": [
            "0.0168"
          ],
          "_line_tax_data": [
            "a:2:{s:5:\"total\";a:1:{i:1;s:6:\"0.0168\";}s:8:\"subtotal\";a:1:{i:1;s:6:\"0.0168\";}}"
          ]
        },
        "item_meta_array": {
          "890": {
            "key": "_qty",
            "value": "1"
          },
          "891": {
            "key": "_tax_class",
            "value": ""
          },
          "892": {
            "key": "_product_id",
            "value": "995"
          },
          "893": {
            "key": "_variation_id",
            "value": "0"
          },
          "894": {
            "key": "_line_subtotal",
            "value": "0.28"
          },
          "895": {
            "key": "_line_total",
            "value": "0.28"
          },
          "896": {
            "key": "_line_subtotal_tax",
            "value": "0.0168"
          },
          "897": {
            "key": "_line_tax",
            "value": "0.0168"
          },
          "898": {
            "key": "_line_tax_data",
            "value": "a:2:{s:5:\"total\";a:1:{i:1;s:6:\"0.0168\";}s:8:\"subtotal\";a:1:{i:1;s:6:\"0.0168\";}}"
          }
        },
        "qty": "1",
        "tax_class": "",
        "product_id": "995",
        "variation_id": "0",
        "line_subtotal": "0.28",
        "line_total": "0.28",
        "line_subtotal_tax": "0.0168",
        "line_tax": "0.0168",
        "line_tax_data": "a:2:{s:5:\"total\";a:1:{i:1;s:6:\"0.0168\";}s:8:\"subtotal\";a:1:{i:1;s:6:\"0.0168\";}}"
      },
      "132": {
        "name": "test2",
        "type": "line_item",
        "item_meta": {
          "_qty": [
            "1"
          ],
          "_tax_class": [
            ""
          ],
          "_product_id": [
            "993"
          ],
          "_variation_id": [
            "0"
          ],
          "_line_subtotal": [
            "0.2"
          ],
          "_line_total": [
            "0.2"
          ],
          "_line_subtotal_tax": [
            "0.012"
          ],
          "_line_tax": [
            "0.012"
          ],
          "_line_tax_data": [
            "a:2:{s:5:\"total\";a:1:{i:1;s:5:\"0.012\";}s:8:\"subtotal\";a:1:{i:1;s:5:\"0.012\";}}"
          ]
        },
        "item_meta_array": {
          "899": {
            "key": "_qty",
            "value": "1"
          },
          "900": {
            "key": "_tax_class",
            "value": ""
          },
          "901": {
            "key": "_product_id",
            "value": "993"
          },
          "902": {
            "key": "_variation_id",
            "value": "0"
          },
          "903": {
            "key": "_line_subtotal",
            "value": "0.2"
          },
          "904": {
            "key": "_line_total",
            "value": "0.2"
          },
          "905": {
            "key": "_line_subtotal_tax",
            "value": "0.012"
          },
          "906": {
            "key": "_line_tax",
            "value": "0.012"
          },
          "907": {
            "key": "_line_tax_data",
            "value": "a:2:{s:5:\"total\";a:1:{i:1;s:5:\"0.012\";}s:8:\"subtotal\";a:1:{i:1;s:5:\"0.012\";}}"
          }
        },
        "qty": "1",
        "tax_class": "",
        "product_id": "993",
        "variation_id": "0",
        "line_subtotal": "0.2",
        "line_total": "0.2",
        "line_subtotal_tax": "0.012",
        "line_tax": "0.012",
        "line_tax_data": "a:2:{s:5:\"total\";a:1:{i:1;s:5:\"0.012\";}s:8:\"subtotal\";a:1:{i:1;s:5:\"0.012\";}}"
      }
    },
    "product_id": {
      "994": {
        "id": "ABVSKOIL60X3BAN1",
        "price": 0.51
      },
      "995": {
        "id": "ABVSKOIL30S",
        "price": 0.28
      },
      "993": {
        "id": "BCHDPREG",
        "price": 0.2
      }
    }
  },
  "customer_id": 0,
  "customerinfo": {
    "billing": {
      "first_name": "Nurul Hafiza",
      "last_name": "Mohd Noor Azam",
      "company": "",
      "address_1": "Taman Titiwangsa",
      "address_2": "",
      "city": "Bayan Lepas",
      "state": "PHG",
      "postcode": "11900",
      "country": "MY",
      "email": "hafiza@presources.com.my",
      "phone": "01213445"
    },
    "shipping_address": "Nurul Hafiza",
    "shipping": {
      "first_name": "Nurul Hafiza",
      "last_name": "Mohd Noor Azam",
      "company": "",
      "address_1": "Taman Edit Selasih",
      "address_2": "",
      "city": "Bayan Lepas",
      "state": "PHG",
      "postcode": "11900",
      "country": "MY"
    }
  }
}